^C:\DEV\CPPGAMECA1\GAME\DEBUG\AIRCRAFT.OBJ|C:\DEV\CPPGAMECA1\GAME\DEBUG\ANIMATION.OBJ|C:\DEV\CPPGAMECA1\GAME\DEBUG\APPLICATION.OBJ|C:\DEV\CPPGAMECA1\GAME\DEBUG\BLOOMEFFECT.OBJ|C:\DEV\CPPGAMECA1\GAME\DEBUG\BUTTON.OBJ|C:\DEV\CPPGAMECA1\GAME\DEBUG\COMMAND.OBJ|C:\DEV\CPPGAMECA1\GAME\DEBUG\COMMANDQUEUE.OBJ|C:\DEV\CPPGAMECA1\GAME\DEBUG\COMPONENT.OBJ|C:\DEV\CPPGAMECA1\GAME\DEBUG\CONTAINER.OBJ|C:\DEV\CPPGAMECA1\GAME\DEBUG\DATATABLES.OBJ|C:\DEV\CPPGAMECA1\GAME\DEBUG\EMITTERNODE.OBJ|C:\DEV\CPPGAMECA1\GAME\DEBUG\ENTITY.OBJ|C:\DEV\CPPGAMECA1\GAME\DEBUG\GAMEOVERSTATE.OBJ|C:\DEV\CPPGAMECA1\GAME\DEBUG\GAMESERVER.OBJ|C:\DEV\CPPGAMECA1\GAME\DEBUG\GAMESTATE.OBJ|C:\DEV\CPPGAMECA1\GAME\DEBUG\KEYBINDING.OBJ|C:\DEV\CPPGAMECA1\GAME\DEBUG\LABEL.OBJ|C:\DEV\CPPGAMECA1\GAME\DEBUG\MAIN.OBJ|C:\DEV\CPPGAMECA1\GAME\DEBUG\MENUSTATE.OBJ|C:\DEV\CPPGAMECA1\GAME\DEBUG\MOUSESTATE.OBJ|C:\DEV\CPPGAMECA1\GAME\DEBUG\MULTIPLAYERGAMESTATE.OBJ|C:\DEV\CPPGAMECA1\GAME\DEBUG\MUSICPLAYER.OBJ|C:\DEV\CPPGAMECA1\GAME\DEBUG\NETWORKNODE.OBJ|C:\DEV\CPPGAMECA1\GAME\DEBUG\PARTICLENODE.OBJ|C:\DEV\CPPGAMECA1\GAME\DEBUG\PAUSESTATE.OBJ|C:\DEV\CPPGAMECA1\GAME\DEBUG\PICKUP.OBJ|C:\DEV\CPPGAMECA1\GAME\DEBUG\PLAYER.OBJ|C:\DEV\CPPGAMECA1\GAME\DEBUG\POSTEFFECT.OBJ|C:\DEV\CPPGAMECA1\GAME\DEBUG\PROJECTILE.OBJ|C:\DEV\CPPGAMECA1\GAME\DEBUG\SCENENODE.OBJ|C:\DEV\CPPGAMECA1\GAME\DEBUG\SETTINGSSTATE.OBJ|C:\DEV\CPPGAMECA1\GAME\DEBUG\SOUNDNODE.OBJ|C:\DEV\CPPGAMECA1\GAME\DEBUG\SOUNDPLAYER.OBJ|C:\DEV\CPPGAMECA1\GAME\DEBUG\SPRITENODE.OBJ|C:\DEV\CPPGAMECA1\GAME\DEBUG\STATE.OBJ|C:\DEV\CPPGAMECA1\GAME\DEBUG\STATESTACK.OBJ|C:\DEV\CPPGAMECA1\GAME\DEBUG\TEXTNODE.OBJ|C:\DEV\CPPGAMECA1\GAME\DEBUG\TITLESTATE.OBJ|C:\DEV\CPPGAMECA1\GAME\DEBUG\UTILITY.OBJ|C:\DEV\CPPGAMECA1\GAME\DEBUG\WORLD.OBJ
C:\DEV\CPPGAMECA1\DEBUG\GAME.EXE
C:\DEV\CPPGAMECA1\DEBUG\GAME.ILK
C:\DEV\CPPGAMECA1\DEBUG\GAME.PDB
